Name,Sex,Division,BodyweightKg,WeightClassKg,BirthDate,Squat1Kg,Squat2Kg,Squat3Kg,Best3SquatKg,Bench1Kg,Bench2Kg,Bench3Kg,Best3BenchKg,Deadlift1Kg,Deadlift2Kg,Deadlift3Kg,Best3DeadliftKg,TotalKg,Event,Equipment,Place
Carla Caldeira,F,Open,58.1,60,1997-03-21,135,145,152.5,152.5,82.5,90,-95,90,145,152.5,,152.5,395,SBD,Wraps,1
Joana Teixeira,F,Open,60,60,1988-03-29,115,-120,-120,115,75,80,-85,80,135,142.5,150,150,345,SBD,Wraps,2
Rita Arca,F,Open,75,75,1998-10-26,110,-125,-125,110,82.5,-87.5,-87.5,82.5,175,182.5,-190,182.5,375,SBD,Wraps,1
Felicia Eddy,F,J20-23,60,60,2001-05-13,80,90,100,100,37.5,-42.5,42.5,42.5,100,-120,-120,100,242.5,SBD,Wraps,1
Raquel Saraiva,F,Open,58.5,60,1989-11-27,,,,,45,50,-57.5,50,,,,,50,B,Raw,1
Jéssica Furtado,F,Open,81.7,82.5,1993-09-11,,,,,65,72.5,-77.5,72.5,,,,,72.5,B,Raw,1
Evelyn Eisensehn,F,Open,83.8,90,1973-11-16,,,,,110,122.5,-127.5,122.5,,,,,122.5,B,Raw,1
Beatriz Vidal,F,T14-16,65.3,67.5,2008-11-13,,,,,62.5,67.5,-70,67.5,,,,,67.5,B,Raw,1
Daniela Dias,F,Open,55.8,56,1988-03-25,,,,,,,,,142.5,-150,-152.5,142.5,142.5,D,Raw,1
Jéssica Furtado,F,Open,81.7,82.5,1993-09-11,,,,,,,,,155,165,175,175,175,D,Raw,1
João Almeida,M,J20-23,87.9,90,2000-08-07,155,162.5,-170,162.5,107.5,115,-125,115,175,190,205,205,482.5,SBD,Wraps,1
José Amaral,M,J20-23,96.4,100,2002-04-29,-170,170,200,200,120,127.5,135,135,215,230,245,245,580,SBD,Wraps,1
Didier Mugabuhamye,M,J20-23,113.5,125,2000-04-18,200,-215,215,215,-155,155,-165,155,225,-230,235,235,605,SBD,Wraps,1
Stéphane Jezequel,M,M45-49,81,82.5,1975-06-16,135,142.5,147.5,147.5,100,110,-112.5,110,-170,170,-185,170,427.5,SBD,Wraps,1
Cristophe Chapuis,M,M45-49,105.3,110,1977-10-24,-130,130,-140,130,-115,-115,-115,,,,,,,SBD,Wraps,DQ
Daniel Pires,M,M50-54,95.7,100,1971-11-05,170,190,202.5,202.5,120,140,-142.5,140,180,205,220,220,562.5,SBD,Wraps,1
Ali Aliauate,M,M55-59,82.2,82.5,1964-04-01,-180,180,-200,180,115,120,-130,120,230,-250,,230,530,SBD,Wraps,1
Emanuel Justo,M,Open,66.9,67.5,1996-09-26,162.5,182.5,-195,182.5,125,-137.5,137.5,137.5,200,212.5,220,220,540,SBD,Wraps,1
Tiago Costa,M,Open,74.9,75,1990-05-02,195,212.5,225,225,135,147.5,-152.5,147.5,232.5,250,-260,250,622.5,SBD,Wraps,1
Miguel Gonzalez,M,Open,69.6,75,1995-07-05,65,70,75,75,60,-65,65,65,120,125,130,130,270,SBD,Wraps,2
Ricardo Lima,M,Open,76.3,82.5,1983-07-29,180,195,205,205,125,135,142.5,142.5,220,240,255,255,602.5,SBD,Wraps,1
Gonçalo Marantes,M,Open,79.6,82.5,1999-02-22,160,180,200,200,105,-112.5,112.5,112.5,200,225,-242.5,225,537.5,SBD,Wraps,2
Paulo Gonçalves,M,Open,86.5,90,1985-09-04,220,-240,,220,140,-150,150,150,270,-285,-285,270,640,SBD,Wraps,1
Renato Simões,M,Open,86.3,90,1990-03-20,205,220,-227.5,220,145,155,-160,155,235,247.5,255,255,630,SBD,Wraps,2
Paulo Santos,M,Open,97,100,1988-09-25,250,265,280,280,190,200,210,210,290,310,340,340,830,SBD,Wraps,1
Cassio Gois,M,Open,121.9,125,1995-09-27,260,280,-300,280,175,190,202.5,202.5,225,250,-270,250,732.5,SBD,Wraps,1
Marre Valentin,M,Open,137.4,140,1992-04-11,180,190,-200,190,-150,150,,150,200,220,230,230,570,SBD,Wraps,1
Thalison Silva,M,S17-19,74.8,75,2006-03-23,120,130,-145,130,75,82.5,87.5,87.5,130,142.5,155,155,372.5,SBD,Wraps,1
Thomas Simon,M,T14-16,71.5,75,2008-08-27,90,100,110,110,65,70,-72.5,70,115,125,132.5,132.5,312.5,SBD,Wraps,1
Jean Houdbine,M,T14-16,81.6,82.5,2007-02-02,95,110,120,120,72.5,77.5,82.5,82.5,145,160,172.5,172.5,375,SBD,Wraps,1
Saul Iglesia,M,Y5-13,64.7,67.5,2010-03-03,-80,80,85,85,52.5,-60,60,60,95,105,120,120,265,SBD,Wraps,1
Adriano Costa,M,M60-64,67.5,67.5,1963-01-13,140,150,160,160,,,,,,,,,160,S,Wraps,1
Didier Mugabuhamye,M,J20-23,113.5,125,2000-04-18,,,,,-155,155,-165,155,,,,,155,B,Raw,1
Paulo Paixão,M,M50-54,73.3,75,1970-11-01,,,,,85,-90,90,90,,,,,90,B,Raw,1
Paulo Leandro,M,M55-59,106.8,110,1966-01-23,,,,,100,-110,-112.5,100,,,,,100,B,Raw,1
Tony Chard,M,M55-59,123.5,125,1968-08-12,,,,,160,165,-172.5,165,,,,,165,B,Raw,1
Marco Magalhães,M,Open,77.1,82.5,1976-10-24,,,,,170,175,180,180,,,,,180,B,Raw,1
Jaime Colino,M,Open,81.1,82.5,1989-09-19,,,,,172.5,180,-185,180,,,,,180,B,Raw,2
Roberto Vasquez,M,Open,87.8,90,1993-08-06,,,,,180,190,-200,190,,,,,190,B,Raw,1
Pedro Furtado,M,Open,86.9,90,1988-05-15,,,,,140,147.5,152.5,152.5,,,,,152.5,B,Raw,2
Marcos Pinto,M,Open,105.1,110,1991-07-27,,,,,185,205,212.5,212.5,,,,,212.5,B,Raw,1
Saydulaev Akraman,M,Open,115.4,125,1983-08-21,,,,,220,230,235,235,,,,,235,B,Raw,1
Afonso Eusébio,M,T14-16,104.6,110,2007-11-07,,,,,85,92.5,-97.5,92.5,,,,,92.5,B,Raw,1
Didier Mugabuhamye,M,J20-23,113.5,125,2000-04-18,,,,,,,,,225,-230,235,235,235,D,Raw,1
Valter Tápia,M,M40-44,121.8,125,1982-11-29,,,,,,,,,270,302.5,-320,302.5,302.5,D,Raw,1
Paulo Leandro,M,M55-59,106.8,110,1966-01-23,,,,,,,,,190,200,210,210,210,D,Raw,1
Tony Chard,M,M55-59,123.5,125,1968-08-12,,,,,,,,,230,250,-260,250,250,D,Raw,1
Adriano Costa,M,M60-64,67.5,67.5,1963-01-13,,,,,,,,,170,182.5,-197.5,182.5,182.5,D,Raw,1
Pedro Furtado,M,Open,86.9,90,1988-05-15,,,,,,,,,260,267.5,275,275,275,D,Raw,1
Francisco Fernandez,M,S17-19,43.2,52,2004-06-04,,,,,,,,,50,52.5,57.5,57.5,57.5,D,Raw,1
Afonso Eusébio,M,T14-16,104.6,110,2007-11-07,,,,,,,,,145,160,175,175,175,D,Raw,1
